module wms-cli

go 1.19

require (
	github.com/spf13/cobra v1.5.0
	github.com/spf13/viper v1.12.0
	github.com/xanzy/go-gitlab v0.73.0
	gopkg.in/ini.v1 v1.66.6
)

require (
	github.com/fsnotify/fsnotify v1.5.4 // indirect
	github.com/golang/protobuf v1.5.2 // indirect
	github.com/google/go-querystring v1.1.0 // indirect
	github.com/hashicorp/go-cleanhttp v0.5.2 // indirect
	github.com/hashicorp/go-retryablehttp v0.7.1 // indirect
	github.com/hashicorp/hcl v1.0.0 // indirect
	github.com/inconshreveable/mousetrap v1.0.0 // indirect
	github.com/magiconair/properties v1.8.6 // indirect
	github.com/mitchellh/mapstructure v1.5.0 // indirect
	github.com/pelletier/go-toml v1.9.5 // indirect
	github.com/pelletier/go-toml/v2 v2.0.1 // indirect
	github.com/spf13/afero v1.8.2 // indirect
	github.com/spf13/cast v1.5.0 // indirect
	github.com/spf13/jwalterweatherman v1.1.0 // indirect
	github.com/spf13/pflag v1.0.5 // indirect
	github.com/subosito/gotenv v1.3.0 // indirect
	golang.org/x/net v0.0.0-20220805013720-a33c5aa5df48 // indirect
	golang.org/x/oauth2 v0.0.0-20220722155238-128564f6959c // indirect
	golang.org/x/sys v0.0.0-20220728004956-3c1f35247d10 // indirect
	golang.org/x/text v0.3.7 // indirect
	golang.org/x/time v0.0.0-20220722155302-e5dcc9cfc0b9 // indirect
	google.golang.org/appengine v1.6.7 // indirect
	google.golang.org/protobuf v1.28.1 // indirect
	gopkg.in/check.v1 v1.0.0-20201130134442-10cb98267c6c // indirect
	gopkg.in/yaml.v2 v2.4.0 // indirect
	gopkg.in/yaml.v3 v3.0.1 // indirect
)
